\relax 
\@writefile{toc}{\contentsline {section}{\numberline {1}General Appearance}{1}}
\@writefile{toc}{\contentsline {section}{\numberline {2}Running Heads}{2}}
\@writefile{toc}{\contentsline {section}{\numberline {3}Major Headings}{2}}
\@writefile{toc}{\contentsline {subsection}{\numberline {3.1}Sub-headings}{2}}
\@writefile{toc}{\contentsline {subsubsection}{\numberline {3.1.1}Sub-subheadings}{2}}
\@writefile{toc}{\contentsline {subsection}{\numberline {3.2}Numbering and spacing}{2}}
\@writefile{toc}{\contentsline {subsection}{\numberline {3.3}Lists of items}{2}}
\@writefile{toc}{\contentsline {section}{\numberline {4}Equations}{2}}
\newlabel{diseqn}{{4.1}{3}}
\@writefile{toc}{\contentsline {section}{\numberline {5}Theorem Environments}{3}}
\@writefile{toc}{\contentsline {section}{\numberline {6}Illustrations and Photographs}{3}}
\@writefile{lof}{\contentsline {figure}{\numberline {1}{\ignorespaces A schematic illustration of dissociative recombination. The direct mechanism, 4m$^2_\pi $ is initiated when the molecular ion S$_{\rm  L}$ captures an electron with kinetic energy.}}{3}}
\citation{1}
\@writefile{toc}{\contentsline {section}{\numberline {7}Tables}{4}}
\@writefile{lot}{\contentsline {table}{\numberline {1}{\ignorespaces Comparison of acoustic for frequencies for piston-cylinder problem.}}{4}}
\@writefile{toc}{\contentsline {section}{\numberline {8}Footnotes}{4}}
\@writefile{toc}{\contentsline {section}{\numberline {Appendix\ A}Appendices}{4}}
\newlabel{appeqn}{{A.1}{4}}
\bibcite{1}{1}
\bibcite{2}{2}
\bibcite{3}{3}
\bibcite{4}{4}
\bibcite{5}{5}
\bibcite{6}{6}
\bibcite{7}{7}
\bibcite{8}{8}
\bibcite{9}{9}
\bibcite{10}{10}
\bibcite{11}{11}
\bibcite{12}{12}
\newlabel{eof}{{Appendix\ A}{5}}
